{
    "inherit": ["glyphs.json"],
    "metadata" :
    {
        "copyright" : "",
        "comment": ""
    },
    "font" :
    {
        "glyphFolder" : "glyphs",
        "height" : 17,
        "lineCount" : 14,
        "descent" : 3,
        "upos" : 2,
        "filled" : "#",
        "empty" : "."
    },
    "generator":
    {
        "unit" : 125,
        "em" : 2048,
        "emDescent": 200
    }
}
